BMI 714 Final Project Rmd
…
# fit workflows/models ----
set.seed(714)
bt_tuned <- bt_wflow |> 
  tune_grid(nhanes_folds, grid = bt_grid, control = control_grid(save_workflow = TRUE))

# Save results
save(bt_tuned, file = ("results/bt_tuned.rda"))

Evaluate model fit

# boosted tree model
bt_tuned |> collect_metrics()

## # A tibble: 250 × 9
##     mtry min_n learn_rate .metric .estimator   mean     n std_err .config       
##    <int> <int>      <dbl> <chr>   <chr>       <dbl> <int>   <dbl> <chr>         
##  1     1     2    0.00001 rmse    standard   2.46      15 0.00558 Preprocessor1…
##  2     1     2    0.00001 rsq     standard   0.121     15 0.00594 Preprocessor1…
##  3     3     2    0.00001 rmse    standard   2.46      15 0.00558 Preprocessor1…
##  4     3     2    0.00001 rsq     standard   0.140     15 0.00508 Preprocessor1…
##  5     5     2    0.00001 rmse    standard   2.46      15 0.00558 Preprocessor1…
##  6     5     2    0.00001 rsq     standard   0.135     15 0.00494 Preprocessor1…
##  7     7     2    0.00001 rmse    standard   2.46      15 0.00558 Preprocessor1…
##  8     7     2    0.00001 rsq     standard   0.125     15 0.00501 Preprocessor1…
##  9    10     2    0.00001 rmse    standard   2.46      15 0.00558 Preprocessor1…
## 10    10     2    0.00001 rsq     standard   0.0990    15 0.00438 Preprocessor1…
## # ℹ 240 more rows
…
# fit workflows/models ----
set.seed(714)
bt_tuned_2 <- bt_wflow |> 
  tune_grid(nhanes_folds_2, grid = bt_grid_2, control = control_grid(save_workflow = TRUE))

# Save results
save(bt_tuned_2, file = ("results/bt_tuned_2.rda"))

# Evaluate Model Fit

# boosted tree model
bt_tuned_2 |> collect_metrics()

## # A tibble: 250 × 9
##     mtry min_n learn_rate .metric .estimator  mean     n std_err .config        
##    <int> <int>      <dbl> <chr>   <chr>      <dbl> <int>   <dbl> <chr>          
##  1     1     2    0.00001 rmse    standard   2.45     15 0.00437 Preprocessor1_…
##  2     1     2    0.00001 rsq     standard   0.130    15 0.00635 Preprocessor1_…
##  3     3     2    0.00001 rmse    standard   2.45     15 0.00437 Preprocessor1_…
##  4     3     2    0.00001 rsq     standard   0.147    15 0.00581 Preprocessor1_…
##  5     5     2    0.00001 rmse    standard   2.45     15 0.00437 Preprocessor1_…
##  6     5     2    0.00001 rsq     standard   0.143    15 0.00525 Preprocessor1_…
##  7     7     2    0.00001 rmse    standard   2.45     15 0.00437 Preprocessor1_…
##  8     7     2    0.00001 rsq     standard   0.135    15 0.00476 Preprocessor1_…
##  9    10     2    0.00001 rmse    standard   2.45     15 0.00437 Preprocessor1_…
## 10    10     2    0.00001 rsq     standard   0.101    15 0.00497 Preprocessor1_…
## # ℹ 240 more rows
…
